[
  {
    "model": "bills.category",
    "pk": 1,
    "fields": {
      "name": "Comida",
      "created_at": "2019-04-15T14:29:46.425Z",
      "updated_at": "2019-04-15T14:29:46.425Z"
    }
  },
  {
    "model": "bills.category",
    "pk": 2,
    "fields": {
      "name": "Tasas",
      "created_at": "2019-04-15T14:35:25.096Z",
      "updated_at": "2019-04-15T14:35:25.096Z"
    }
  },
  {
    "model": "bills.category",
    "pk": 3,
    "fields": {
      "name": "Compras",
      "created_at": "2019-04-15T14:39:31.851Z",
      "updated_at": "2019-04-15T14:39:31.851Z"
    }
  }
]